\relax 
\bibstyle{asp2010}
\citation{OGCE}
\citation{teragrid}
\citation{PL001}
\citation{OGCE}
\citation{PL013}
\bibdata{O12_1}
\bibcite{teragrid}{{1}{2005}{{Catlett}}{{}}}
\bibcite{OGCE}{{2}{2009}{{Pierce et~al.}}{{Pierce, Marru, Wu, Kandaswamy, Laszewski, Dooley, Dahan, Wilkins-Dier, \& Thomas}}}
\bibcite{PL013}{{3}{2009}{{Valdes}}{{}}}
\bibcite{PL001}{{4}{2006}{{Valdes et~al.}}{{Valdes, Cline, Pierfederici, Thomas, Miller, \& Swaters}}}
