\relax 
\@writefile{toc}{\contentsline {section}{Purpose of this Document}{2}}
\@writefile{toc}{\contentsline {section}{\numberline {1}Overview}{2}}
\@writefile{toc}{\contentsline {section}{\numberline {2}The Calibration Database}{3}}
\@writefile{lof}{\contentsline {figure}{\numberline {1}{\ignorespaces Calibration System Overview}}{4}}
\newlabel{fig:seqoverview}{{1}{4}}
\@writefile{lot}{\contentsline {table}{\numberline {1}{\ignorespaces Catalog Fields for Table \emph  {CalCat} }}{5}}
\newlabel{CalCat}{{1}{5}}
\@writefile{toc}{\contentsline {section}{\numberline {3}The Data Engine}{7}}
\@writefile{toc}{\contentsline {section}{\numberline {4}The Calibration Planner}{8}}
\@writefile{toc}{\contentsline {subsection}{\numberline {4.1}The Calibration Database Query}{9}}
\@writefile{lot}{\contentsline {table}{\numberline {2}{\ignorespaces Target Exposure Metadata}}{9}}
\newlabel{tbl:expmetadata}{{2}{9}}
\@writefile{lot}{\contentsline {table}{\numberline {3}{\ignorespaces Calibration Query Parameters}}{9}}
\newlabel{tbl:parameters}{{3}{9}}
\@writefile{toc}{\contentsline {subsection}{\numberline {4.2}Calibration Selection}{10}}
\citation{VOTables}
\@writefile{lof}{\contentsline {figure}{\numberline {2}{\ignorespaces Schematic query to select a calibration}}{11}}
\newlabel{fig:query}{{2}{11}}
\newlabel{VOTables}{{5}{12}}
\@writefile{toc}{\contentsline {section}{\numberline {5}The VOTables}{12}}
\@input{VOTables/votable1.aux}
\@input{VOTables/votable2.aux}
\@input{VOTables/votable3.aux}
\@input{VOTables/votable4.aux}
\@input{VOTables/votable5.aux}
\bibdata{PL103,PLSeries}
\bibcite{VOTables}{{1}{}{{}}{{}}}
\bibstyle{abbrv}
\global\NAT@numberstrue
\@writefile{lof}{\contentsline {figure}{\numberline {3}{\ignorespaces Initial Raw Exposure VOTable}}{14}}
\newlabel{VOTable1}{{3}{14}}
\@writefile{lof}{\contentsline {figure}{\numberline {4}{\ignorespaces Bias Output VOTable}}{15}}
\newlabel{VOTable2}{{4}{15}}
\@writefile{lof}{\contentsline {figure}{\numberline {5}{\ignorespaces Flat Output VOTable}}{16}}
\newlabel{VOTable3}{{5}{16}}
\@writefile{lof}{\contentsline {figure}{\numberline {6}{\ignorespaces Static Exposure Output VOTable}}{17}}
\newlabel{VOTable4}{{6}{17}}
\@writefile{lof}{\contentsline {figure}{\numberline {7}{\ignorespaces Guided Exposure Output VOTable}}{18}}
\newlabel{VOTable5}{{7}{18}}
