\contentsline {section}{Purpose of this Document}{2}
\contentsline {section}{\numberline {1}Overview}{2}
\contentsline {section}{\numberline {2}The Calibration Database}{3}
\contentsline {section}{\numberline {3}The Data Engine}{7}
\contentsline {section}{\numberline {4}The Calibration Planner}{8}
\contentsline {subsection}{\numberline {4.1}The Calibration Database Query}{9}
\contentsline {subsection}{\numberline {4.2}Calibration Selection}{10}
\contentsline {section}{\numberline {5}The VOTables}{12}
