\relax 
\citation{ODI:PASRD}
\citation{PL009}
\citation{PL001}
\citation{2002SPIE.4836..217J}
\citation{ODI:PASRD}
\@writefile{toc}{\contentsline {section}{Purpose of this Document}{2}}
\citation{2002SPIE.4836..217J}
\citation{PL001}
\citation{ODI:PASRD}
\@writefile{toc}{\contentsline {section}{\numberline {1}Introduction}{3}}
\newlabel{pipedefs}{{1.1}{3}}
\@writefile{toc}{\contentsline {subsection}{\numberline {1.1}Pipeline Applications versus Pipelines }{3}}
\newlabel{datasets}{{1.2}{4}}
\@writefile{toc}{\contentsline {subsection}{\numberline {1.2}Datasets }{4}}
\citation{PL009}
\citation{PL017}
\citation{1995ASPC...77..429R}
\citation{PL001}
\@writefile{toc}{\contentsline {subsection}{\numberline {1.3}The MOSAIC and NEWFIRM Pipelines}{5}}
\citation{ODI:PASRD}
\citation{ODI:PASRD}
\citation{2006amos.confE..50M}
\citation{2008SPIE.7016E..17M}
\citation{LSST:DMPipelines}
\@writefile{toc}{\contentsline {subsection}{\numberline {1.4}Pan-STARRS, DECam, and LSST Pipelines}{6}}
\@writefile{toc}{\contentsline {subsection}{\numberline {1.5}Pipeline Frameworks}{6}}
\citation{ODI:PASRD}
\newlabel{calibrations}{{2}{7}}
\@writefile{toc}{\contentsline {section}{\numberline {2}Calibration Processing }{7}}
\@writefile{toc}{\contentsline {section}{\numberline {3}Limiting the Parallelization}{8}}
\newlabel{overview}{{4}{9}}
\@writefile{toc}{\contentsline {section}{\numberline {4}ODI Data Flow Overview }{9}}
\citation{ODI:PASRD}
\citation{PL012}
\citation{PL012}
\citation{PL012}
\newlabel{pipelines}{{5}{12}}
\@writefile{toc}{\contentsline {section}{\numberline {5}ODI Data Flow Details and Pipeline Decomposition }{12}}
\@writefile{toc}{\contentsline {subsection}{\numberline {5.1}TOP Pipeline}{12}}
\@writefile{lof}{\contentsline {figure}{\numberline {1}{\ignorespaces The ODI Pipeline Hierarchy.}}{13}}
\newlabel{fig:hierarchy}{{1}{13}}
\@writefile{toc}{\contentsline {subsubsection}{\numberline {5.1.1}Staging the Data}{14}}
\@writefile{toc}{\contentsline {subsubsection}{\numberline {5.1.2}Sequencing the Dataset}{14}}
\@writefile{toc}{\contentsline {subsection}{\numberline {5.2}CAL Pipeline}{15}}
\@writefile{toc}{\contentsline {subsection}{\numberline {5.3}SEQ Pipeline}{15}}
\@writefile{toc}{\contentsline {subsection}{\numberline {5.4}OCL Pipeline}{15}}
\citation{ODI:PASRD}
\@writefile{toc}{\contentsline {subsection}{\numberline {5.5}FTR Pipeline}{16}}
\@writefile{toc}{\contentsline {subsection}{\numberline {5.6}EXP Pipeline}{16}}
\@writefile{toc}{\contentsline {subsubsection}{\numberline {5.6.1}Astrometric Calibration}{16}}
\@writefile{toc}{\contentsline {subsubsection}{\numberline {5.6.2}Photometric Characterization}{17}}
\newlabel{OTA Pipeline}{{5.7}{17}}
\@writefile{toc}{\contentsline {subsection}{\numberline {5.7}OTA Pipeline }{17}}
\citation{QUOTA}
\@writefile{lof}{\contentsline {figure}{\numberline {2}{\ignorespaces Operations performed by the OTA pipeline.}}{18}}
\newlabel{fig:OTAops}{{2}{18}}
\@writefile{toc}{\contentsline {subsubsection}{\numberline {5.7.1}Crosstalk}{18}}
\@writefile{toc}{\contentsline {subsubsection}{\numberline {5.7.2}Overscan}{19}}
\@writefile{toc}{\contentsline {subsubsection}{\numberline {5.7.3}Masking and Replacement}{19}}
\@writefile{toc}{\contentsline {subsubsection}{\numberline {5.7.4}Merging}{19}}
\@writefile{toc}{\contentsline {subsubsection}{\numberline {5.7.5}Bias or Dark Subtraction}{19}}
\@writefile{toc}{\contentsline {subsubsection}{\numberline {5.7.6}Flat Fielding}{20}}
\@writefile{toc}{\contentsline {subsubsection}{\numberline {5.7.7}Cosmic Ray Masking}{20}}
\newlabel{pupil subtraction}{{5.7.8}{20}}
\@writefile{toc}{\contentsline {subsubsection}{\numberline {5.7.8}Pupil Pattern Subtraction }{20}}
\@writefile{toc}{\contentsline {subsubsection}{\numberline {5.7.9}Catalog Generation and Astrometric Calibration}{21}}
\newlabel{resampling}{{5.7.10}{21}}
\@writefile{toc}{\contentsline {subsubsection}{\numberline {5.7.10}Resampling }{21}}
\@writefile{toc}{\contentsline {subsection}{\numberline {5.8}SKY Pipeline}{21}}
\@writefile{toc}{\contentsline {subsection}{\numberline {5.9}PGR and SPG Pipelines}{22}}
\@writefile{toc}{\contentsline {subsection}{\numberline {5.10}FRG and SFR Pipelines}{22}}
\citation{resampling}
\@writefile{toc}{\contentsline {subsection}{\numberline {5.11}SFT and SSF Pipelines}{23}}
\@writefile{toc}{\contentsline {subsection}{\numberline {5.12}RSP Pipeline}{23}}
\citation{ODI:PASRD}
\@writefile{toc}{\contentsline {subsection}{\numberline {5.13}STK Pipeline}{24}}
\newlabel{PSF}{{5.13.1}{24}}
\@writefile{toc}{\contentsline {subsubsection}{\numberline {5.13.1}PSF Matching }{24}}
\@writefile{toc}{\contentsline {subsubsection}{\numberline {5.13.2}Harsh and Final Science Stacks}{24}}
\@writefile{toc}{\contentsline {subsection}{\numberline {5.14}OSK Pipeline}{24}}
\citation{ODI:PASRD}
\@writefile{toc}{\contentsline {subsubsection}{\numberline {5.14.1}Matching the Harsh Stack to an OTA}{25}}
\@writefile{toc}{\contentsline {subsubsection}{\numberline {5.14.2}Difference Detection}{25}}
\@writefile{toc}{\contentsline {subsection}{\numberline {5.15}SCI Pipeline}{25}}
\@writefile{lof}{\contentsline {figure}{\numberline {3}{\ignorespaces Example piece of MOSAIC pipeline review html page. }}{26}}
\newlabel{fig:review}{{3}{26}}
\@writefile{toc}{\contentsline {subsection}{\numberline {5.16}DPS Pipeline}{26}}
\@writefile{toc}{\contentsline {subsection}{\numberline {5.17}EDP Pipeline}{26}}
\@writefile{toc}{\contentsline {subsection}{\numberline {5.18}DTS Pipeline}{27}}
\@writefile{toc}{\contentsline {section}{\numberline {6}Error Handling}{27}}
\newlabel{examples}{{7}{27}}
\@writefile{toc}{\contentsline {section}{\numberline {7}Examples }{27}}
\@writefile{toc}{\contentsline {subsection}{\numberline {7.1}Setting up the data flow in the TOP pipeline}{27}}
\@writefile{lof}{\contentsline {figure}{\numberline {4}{\ignorespaces Starting TOP dataset. }}{28}}
\newlabel{top dataset}{{4}{28}}
\@writefile{lof}{\contentsline {figure}{\numberline {5}{\ignorespaces Grouping the TOP dataset. }}{29}}
\newlabel{top datasets}{{5}{29}}
\@writefile{toc}{\contentsline {subsection}{\numberline {7.2}Master Biases}{29}}
\@writefile{toc}{\contentsline {subsection}{\numberline {7.3}Master Dome Flats}{30}}
\@writefile{toc}{\contentsline {subsection}{\numberline {7.4}Static On-sky Exposures}{30}}
\@writefile{toc}{\contentsline {subsection}{\numberline {7.5}On-sky Guided Exposures}{32}}
\@writefile{lof}{\contentsline {figure}{\numberline {6}{\ignorespaces Pipeline Monitor Snapshot }}{33}}
\newlabel{fig:pipemon}{{6}{33}}
\@writefile{toc}{\contentsline {subsection}{\numberline {7.6}Finishing up in the TOP pipeline}{33}}
\@writefile{toc}{\contentsline {subsection}{\numberline {7.7}Example Pipeline State}{33}}
\@writefile{toc}{\contentsline {section}{\numberline {8}Conclusions}{34}}
\bibdata{PLSeries,ODI}
\bibcite{ODI:PASRD}{{1}{}{{}}{{}}}
\bibcite{QUOTA}{{2}{}{{}}{{}}}
\bibcite{2002SPIE.4836..217J}{{3}{}{{}}{{}}}
\bibcite{LSST:DMPipelines}{{4}{}{{}}{{}}}
\bibcite{2006amos.confE..50M}{{5}{}{{}}{{}}}
\bibcite{2008SPIE.7016E..17M}{{6}{}{{}}{{}}}
\bibcite{1995ASPC...77..429R}{{7}{}{{}}{{}}}
\bibcite{PL009}{{8}{}{{}}{{}}}
\bibcite{PL017}{{9}{}{{}}{{}}}
\bibcite{PL001}{{10}{}{{}}{{}}}
\bibcite{PL012}{{11}{}{{}}{{}}}
\bibstyle{abbrv}
\global\NAT@numberstrue
