\begin{thebibliography}{1}

\bibitem{PL026}
F.~Valdes.
\newblock {Pipeline Scheduling Operator Interface}.
\newblock SDM Pipeline Document PL026, NOAO/SDM, Oct 2011.
\newblock http://chive.tuc.noao.edu/noaodpp/Pipeline/PL026.pdf.

\bibitem{PL001}
F.~Valdes, T.~Cline, F.~Pierfederici, B.~Thomas, M.~Miller, and R.~Swaters.
\newblock {The NOAO High-Performance Pipeline System}.
\newblock SDM Pipeline Document PL001, NOAO/SDM, Oct 2006.
\newblock http://chive.tuc.noao.edu/noaodpp/Pipeline/PL001.pdf.

\bibitem{PL023}
F.~Valdes and S.~Marru.
\newblock {The Marriage of Mario (NHPPS) and Luigi (OGCE)}.
\newblock Draft SDM Pipeline Document PL023, NOAO/SDM, Dec 2010.
\newblock http://chive.tuc.noao.edu/noaodpp/Pipeline/PL023.pdf.

\bibitem{2011ASPC..442..211V}
F.~{Valdes} and S.~{Marru}.
\newblock {The Marriage of Mario (NHPPS) and Luigi (OGCE)}.
\newblock In {I.~N.~Evans, A.~Accomazzi, D.~J.~Mink, \& A.~H.~Rots}, editor,
  {\em Astronomical Data Analysis Software and Systems XX}, volume 442 of {\em
  Astronomical Society of the Pacific Conference Series}, pages 211--+, July
  2011.
\newblock Also http://chive.tuc.noao.edu/noaodpp/Pipeline/PL023.pdf.

\bibitem{PL012}
F.~Valdes, D.~Scott, N.~Zarate, and R.~Swaters.
\newblock {NOAO Science Pipelines Operations Model}.
\newblock SDM Pipeline Document PL012, NOAO/SDM, Jan 2008.
\newblock http://chive.tuc.noao.edu/noaodpp/Pipeline/PL012.pdf.

\end{thebibliography}
